Final Project
…
Making the filtered dataset:

filter_data = function(df) {
  df %>% dplyr::filter(round(sleep.time,4) != 6.7575)
}
data_cleaned = filter_data(data)
data_cleaned

# A tibble: 44 × 11
     Age Gender meals.day physical.illness screen.time bluelight.filter
   <dbl> <chr>      <dbl>            <dbl>       <dbl>            <dbl>
 1    22 Female         3                0         3.5                0
 2    23 Male           3                0         3.5                0
 3    23 Female         2                0         1.5                0
 4    22 Male           3                0         5.5                1
 5    22 Male           4                0         1.5                1
 6    24 Female         3                1         4.5                0
 7    24 Male           4                0         2.5                1
 8    23 Female         3                0         5.5                1
 9    28 Female         3                0         0.5                1
10    59 Male           2                0         0.5                0
# ℹ 34 more rows
# ℹ 5 more variables: sleep.direction <chr>, exercise <chr>, smoke.drink <dbl>,
#   beverage <chr>, sleep.time <dbl>
…
Direction of sleep

The Kaggle page for the dataset claims southwest is best. Since we only have 4 directions, we will test for south/west vs north/east

t-test: \(H_0: \mu_{SW} = \mu_{NE}\), \(H_a: \mu_{SW} \neq \mu_{NE}\)

Rank Sum: \(F_{SW}(t) = F_{NE}(t \pm \Delta)\), \(H_0: \Delta = 0\), \(H_a: \Delta \neq 0\)

data_direction = data %>% 
  mutate(
    south.or.west=sleep.direction %in% c("south","west")
  )
data_direction

# A tibble: 46 × 12
     Age Gender meals.day physical.illness screen.time bluelight.filter
   <dbl> <chr>      <dbl>            <dbl>       <dbl>            <dbl>
 1    22 Male           2                0         2                  1
 2    22 Female         3                0         3.5                0
 3    23 Male           3                0         3.5                0
 4    23 Female         2                0         1.5                0
 5    22 Male           3                0         5.5                1
 6    22 Male           2                0         2.5                1
 7    22 Male           4                0         1.5                1
 8    24 Female         3                1         4.5                0
 9    24 Male           4                0         2.5                1
10    23 Female         3                0         5.5                1
# ℹ 36 more rows
# ℹ 6 more variables: sleep.direction <chr>, exercise <chr>, smoke.drink <dbl>,
#   beverage <chr>, sleep.time <dbl>, south.or.west <lgl>
…
